{
  "pass": [
    {
      "type": "open-play",
      "height": "ground",
      "body-part": "right-foot",
      "extras": "aerial-won",
      "id": 1
    },
    {
      "type": "null",
      "height": "null",
      "body-part": "null",
      "extras": "null",
      "id": 2
    },
    {
      "type": "null",
      "height": "null",
      "body-part": "null",
      "extras": "null",
      "id": 3
    },
    {
      "type": "null",
      "height": "null",
      "body-part": "null",
      "extras": "null",
      "id": 4
    },
    {
      "type": "open-play",
      "height": "ground",
      "body-part": "right-foot",
      "extras": "aerial-won",
      "id": 5
    },
    {
      "type": "open-play",
      "height": "ground",
      "body-part": "right-foot",
      "extras": "aerial-won",
      "id": 6
    },
    {
      "type": "open-play",
      "height": "ground",
      "body-part": "right-foot",
      "extras": "aerial-won",
      "id": 7
    },
    {
      "type": "open-play",
      "height": "ground",
      "body-part": "right-foot",
      "extras": "aerial-won",
      "id": 8
    }
  ],
  "shot": [
    {
      "type": "open-play",
      "body-part": "head",
      "extras": "redirect",
      "id": 1
    }
  ]
}